Test
…
## Analysis of Variance Table
## 
## Response: income
##             Df    Sum Sq Mean Sq F value    Pr(>F)    
## age          1   3173944 3173944  98.417 < 2.2e-16 ***
## Residuals 4618 148929914   32250                      
## ---
## Signif. codes:  0 '***' 0.001 '**' 0.01 '*' 0.05 '.' 0.1 ' ' 1

#(5)      . : 53
age_income[order(age_income$income.mean), ]

## # A tibble: 70 x 3
##      age income.mean income.sd
##    <dbl>       <dbl>     <dbl>
##  1    86        10       NA   
##  2    82        20        0   
##  3    85        20        0   
##  4    87        20       NA   
##  5    88        20       NA   
##  6    89        20       NA   
##  7    84        21.7      2.89
##  8    83        28.3     14.4 
##  9    78        32.1     23.6 
## 10    80        32.4     30.3 
## # ... with 60 more rows
…
